<?xml version="1.0" encoding="utf-8"?>
<!-- Generator: Adobe Illustrator 16.0.0, SVG Export Plug-In . SVG Version: 6.00 Build 0)  -->
<!DOCTYPE svg PUBLIC "-//W3C//DTD SVG 1.1//EN" "http://www.w3.org/Graphics/SVG/1.1/DTD/svg11.dtd">
<svg version="1.1" class="icons" xmlns="http://www.w3.org/2000/svg" xmlns:xlink="http://www.w3.org/1999/xlink" x="0px" y="0px"
	 width="500px" height="500px" viewBox="0 0 500 500" style="enable-background:new 0 0 500 500;" xml:space="preserve">
<circle class="map" cx="249.5" cy="250" r="249.5"/>
<g>
	<polygon points="247.288,97 264.086,97 255.713,78.201 	"/>
	<path d="M295.258,77H286v16h9.048c6.108,0,9.952-2.966,9.952-7.811v-0.105C305,79.818,301.208,77,295.258,77z"/>
	<path d="M249.5-0.58C150.473-0.58,64.92,57,24.616,141h449.768C434.08,57,348.529-0.58,249.5-0.58z M230,110h-4V80.24L212.167,100
		h-0.21L199,80.292V110h-5V73h4.687l13.428,20.116L225.542,73H230V110z M270.036,110l-4.318-10h-20.062l-4.371,10h-4.265l16.798-37
		h3.896l16.798,37H270.036z M309,85.031C309,92.983,302.735,97,294.89,97H286v13h-4V73h13.574C303.894,73,309,77.659,309,84.926
		V85.031z"/>
</g>
<g>
	<path d="M250.504,293.037c-17.754,0-32.143-14.388-32.143-32.142c0-17.753,14.389-32.142,32.143-32.142
		c17.744,0,32.137,14.389,32.137,32.142C282.641,278.649,268.248,293.037,250.504,293.037 M250.504,199.312
		c-34.192,0-62.002,27.814-62.002,62.001c0,13.772,8.79,36.218,26.875,68.631c12.794,22.926,25.375,42.041,25.906,42.844
		l9.221,13.972l9.21-13.972c0.528-0.803,13.118-19.918,25.907-42.844c18.09-32.413,26.879-54.858,26.879-68.631
		C312.5,227.126,284.69,199.312,250.504,199.312"/>
</g>
</svg>
